<?xml version="1.0" encoding="utf-8"?>
<!-- Generator: Adobe Illustrator 17.0.0, SVG Export Plug-In . SVG Version: 6.00 Build 0)  -->
<!DOCTYPE svg PUBLIC "-//W3C//DTD SVG 1.1//EN" "http://www.w3.org/Graphics/SVG/1.1/DTD/svg11.dtd">
<svg version="1.1" id="Слой_1" xmlns="http://www.w3.org/2000/svg" xmlns:xlink="http://www.w3.org/1999/xlink" x="0px" y="0px"
	 width="1258px" height="550px" viewBox="0 0 1258 550" enable-background="new 0 0 1258 550" xml:space="preserve">
<linearGradient id="SVGID_1_" gradientUnits="userSpaceOnUse" x1="-0.5" y1="275.5" x2="1257.5" y2="275.5">
	<stop  offset="0" style="stop-color:#EC6907"/>
	<stop  offset="1" style="stop-color:#0078C1"/>
</linearGradient>
<rect x="-0.5" y="0.5" fill="url(#SVGID_1_)" stroke="#000000" stroke-miterlimit="10" width="1258" height="550"/>
<rect x="158" y="143.5" fill="none" width="350.75" height="264"/>
<text transform="matrix(1 0 0 1 217.5135 223.5391)"><tspan x="0" y="0" font-family="'Phosphate-Solid'" font-size="120">SALES</tspan><tspan x="-32.398" y="86.4" font-family="'Phosphate-Solid'" font-size="72">UP TO 50%</tspan><tspan x="11.808" y="172.8" font-family="'Phosphate-Solid'" font-size="72">GO NOW</tspan></text>
<ellipse fill="none" stroke="#000000" stroke-width="5" stroke-miterlimit="10" cx="931" cy="275" rx="207" ry="207.5"/>
<rect x="772" y="221" fill="none" width="318" height="108"/>
<text transform="matrix(1 0 0 1 777.1045 321.0488)" font-family="'Phosphate-Inline'" font-size="150">BIME</text>
</svg>
